An overview of BradleyTerryScalable
…
# A tibble: 6 × 5
  component    cited      citing       prob1wins prob2wins
  <chr>        <chr>      <chr>            <dbl>     <dbl>
1 full_dataset JRSS-B     Biometrika       0.567    0.433 
2 full_dataset JRSS-B     JASA             0.679    0.321 
3 full_dataset Biometrika JASA             0.618    0.382 
4 full_dataset JRSS-B     Comm Statist     0.962    0.0384
5 full_dataset Biometrika Comm Statist     0.950    0.0498
6 full_dataset JASA       Comm Statist     0.922    0.0780

A real-world example

comp_cites

# A tibble: 415,496 × 3
   cited_pdpass citing_pdpass count
   <chr>        <chr>         <dbl>
 1 10032645     10030580          2
 2 10083166     10030580          4
 3 10170329     10030580          2
 4 10191810     10030580          2
 5 10223803     10030580          2
 6 10254226     10030580          1
 7 11490383     10030580          2
 8 11720482     10030580          2
 9 11811663     10030580          1
10 11862620     10030580          4
# … with 415,486 more rows
…
